{
	"info": {
		"_postman_id": "4c033093-4a74-412a-81b1-e19787041cd9",
		"name": "HR365",
		"schema": "https://schema.getpostman.com/json/collection/v2.1.0/collection.json"
	},
	"item": [
		{
			"name": "Login",
			"event": [
				{
					"listen": "test",
					"script": {
						"id": "6e96741c-378f-4367-985b-646ba963e58a",
						"exec": [
							"var jsonData = pm.response.json();",
							"pm.environment.set(\"token\", jsonData.access_token);",
							"pm.environment.set(\"userid\", jsonData.UserID);",
							"pm.environment.set(\"employeeid\", jsonData.EmpID);",
							""
						],
						"type": "text/javascript"
					}
				}
			],
			"request": {
				"method": "POST",
				"header": [
					{
						"key": "Accept",
						"value": "application/json,text/plain,*/*",
						"type": "text"
					},
					{
						"key": "Content-Type",
						"value": "text/plain",
						"type": "text"
					}
				],
				"body": {
					"mode": "raw",
					"raw": "grant_type=password&username={{username}}&password={{password}}"
				},
				"url": {
					"raw": "https://hr365.smarthr.my/webappapi/token",
					"protocol": "https",
					"host": [
						"hr365",
						"smarthr",
						"my"
					],
					"path": [
						"webappapi",
						"token"
					]
				}
			},
			"response": []
		},
		{
			"name": "SaveTimesheet",
			"request": {
				"auth": {
					"type": "bearer",
					"bearer": [
						{
							"key": "token",
							"value": "{{token}}",
							"type": "string"
						}
					]
				},
				"method": "POST",
				"header": [
					{
						"key": "Content-Type",
						"name": "Content-Type",
						"value": "application/json",
						"description": "281-HolidayAccCode",
						"type": "text"
					}
				],
				"body": {
					"mode": "raw",
					"raw": "{\n\t\"AccountCodeID\":{{accountcodeid}},\n\t\"Description\":\"http://support.ifcasoftware.com/browse/SDPB-155\",\n\t\"Duration\":480,\n\t\"EmployeeID\":{{employeeid}},\n\t\"IsChargeable\":true,\n\t\"RecDate\":\"2020-01-06T00:00:00\",\n\t\"TimesheetID\":0,\n\t\"UserID\":{{userid}}\n}",
					"options": {
						"raw": {
							"language": "json"
						}
					}
				},
				"url": {
					"raw": "https://hr365.smarthr.my/webappapi/api/Timesheet/SaveTimesheet",
					"protocol": "https",
					"host": [
						"hr365",
						"smarthr",
						"my"
					],
					"path": [
						"webappapi",
						"api",
						"Timesheet",
						"SaveTimesheet"
					]
				}
			},
			"response": []
		},
		{
			"name": "SaveTimesheet (Public Holiday)",
			"request": {
				"auth": {
					"type": "bearer",
					"bearer": [
						{
							"key": "token",
							"value": "{{token}}",
							"type": "string"
						}
					]
				},
				"method": "POST",
				"header": [
					{
						"description": "281-HolidayAccCode",
						"key": "Content-Type",
						"name": "Content-Type",
						"type": "text",
						"value": "application/json"
					}
				],
				"body": {
					"mode": "raw",
					"raw": "{\n\t\"AccountCodeID\":281,\n\t\"Description\":\"Public Holiday\",\n\t\"Duration\":480,\n\t\"EmployeeID\":{{employeeid}},\n\t\"IsChargeable\":true,\n\t\"RecDate\":\"2020-01-01T00:00:00\",\n\t\"TimesheetID\":0,\n\t\"UserID\":{{userid}}\n}",
					"options": {
						"raw": {
							"language": "json"
						}
					}
				},
				"url": {
					"raw": "https://hr365.smarthr.my/webappapi/api/Timesheet/SaveTimesheet",
					"protocol": "https",
					"host": [
						"hr365",
						"smarthr",
						"my"
					],
					"path": [
						"webappapi",
						"api",
						"Timesheet",
						"SaveTimesheet"
					]
				}
			},
			"response": []
		},
		{
			"name": "SaveTimesheet (Annual Leave)",
			"request": {
				"auth": {
					"type": "bearer",
					"bearer": [
						{
							"key": "token",
							"value": "{{token}}",
							"type": "string"
						}
					]
				},
				"method": "POST",
				"header": [
					{
						"description": "281-HolidayAccCode",
						"key": "Content-Type",
						"name": "Content-Type",
						"type": "text",
						"value": "application/json"
					}
				],
				"body": {
					"mode": "raw",
					"raw": "{\n\t\"AccountCodeID\":280,\n\t\"Description\":\"Annual leave\",\n\t\"Duration\":480,\n\t\"EmployeeID\":{{employeeid}},\n\t\"IsChargeable\":true,\n\t\"RecDate\":\"2020-01-01T00:00:00\",\n\t\"TimesheetID\":0,\n\t\"UserID\":{{userid}}\n}",
					"options": {
						"raw": {
							"language": "json"
						}
					}
				},
				"url": {
					"raw": "https://hr365.smarthr.my/webappapi/api/Timesheet/SaveTimesheet",
					"protocol": "https",
					"host": [
						"hr365",
						"smarthr",
						"my"
					],
					"path": [
						"webappapi",
						"api",
						"Timesheet",
						"SaveTimesheet"
					]
				}
			},
			"response": []
		},
		{
			"name": "GetTimesheetList",
			"request": {
				"auth": {
					"type": "bearer",
					"bearer": [
						{
							"key": "token",
							"value": "{{token}}",
							"type": "string"
						}
					]
				},
				"method": "POST",
				"header": [
					{
						"key": "Content-Type",
						"name": "Content-Type",
						"value": "application/json",
						"type": "text"
					}
				],
				"body": {
					"mode": "raw",
					"raw": "{\n\t\"EmployeeID\":{{employeeid}},\n\t\"RecDate\":\"2020-01-24T00:00:00\"\n}",
					"options": {
						"raw": {
							"language": "json"
						}
					}
				},
				"url": {
					"raw": "https://hr365.smarthr.my/webappapi/api/Timesheet/GetTimesheetList",
					"protocol": "https",
					"host": [
						"hr365",
						"smarthr",
						"my"
					],
					"path": [
						"webappapi",
						"api",
						"Timesheet",
						"GetTimesheetList"
					]
				}
			},
			"response": []
		}
	],
	"protocolProfileBehavior": {}
}